76370 25343 340
2602 401640 443
65424 791290 509
37594 689180 509
57762 433674 449
40335 376044 443
43654 988725 525
74060 461461 449
50147 922160 525
36150 254800 443
62232 317853 443
91197 461867 449
21774 652526 509
16351 620060 470
69945 340591 443
67402 270243 443
47998 289009 443
56908 19258 340
71571 963295 525
57022 413996 449
81193 984741 525
99149 475111 449
56570 729654 509
46757 607951 470
78624 419919 449
27201 580634 470
82410 671202 509
33762 481525 449
86728 328784 443
28269 119295 354
74695 163453 383
65296 665681 509
5540 512159 470
67660 150024 375
63868 486621 449
40429 225419 386
52796 270543 443
80754 318672 443
48360 770372 509
5966 935565 525
74506 516954 470
81626 783463 509
39530 890539 525
88192 772793 509
48430 942019 525
84527 511089 449
86763 730762 509
72566 644928 509
19510 420270 449
80162 49799 351
8625 145966 375
30885 309309 443
15266 776998 509
81680 519190 470
56244 29311 340
30368 623807 470
67193 942568 525
10923 894070 525
28946 869050 525
86237 783969 509
91013 841212 525
26678 514376 470
96442 542874 470
50364 816122 509
29616 807539 509
26719 713557 509
25420 692325 509
31498 440872 449
87664 482911 449
12955 585102 470
26241 488893 449
64308 999846 525
89226 278253 443
82044 520822 470
85160 49460 351
46713 631697 509
30238 882806 525
99140 27722 351
92438 368608 443
90352 104368 341
13245 823295 509
91367 298700 443
53950 382500 443
41675 120838 354
34146 960050 525
46372 312945 443
57483 934902 525
74734 882341 525
99293 211538 383
59848 605847 470
74076 281828 443
58615 428445 449
13916 555355 470
30772 884989 525
72001 800352 509
7587 108149 354
26497 457404 449
67148 390690 443
52057 911527 525
53565 306020 443
96505 423524 449
58111 481118 449
55741 33658 340
1875 410675 449
53842 739789 509
89923 86723 333
15626 776283 509
63064 182915 383
84321 399928 443
57220 119093 354
24489 141664 354
76324 958898 525
32555 411145 449
19323 148420 375
86352 559508 470
19187 110537 354
92260 863906 525
51696 842180 525
47875 8248 324
80959 945538 525
43818 975424 525
40918 847748 525
21463 663571 509
69750 248205 443
30467 263390 443
29690 598401 470
1598 964665 525
5975 492226 449
83165 358299 443
67695 615572 470
33708 53723 340
56707 749368 509
27506 695218 509
45959 516598 470
77437 87820 338
73011 598294 470
38658 893263 525
59304 24408 340
29085 337014 443
54632 199553 383
57629 873892 525
45299 587986 470
41647 45903 314
2806 682814 509
87428 649676 509
40277 513956 470
15171 225035 386
27743 735526 509
1132 492882 449
95984 65783 351
96123 954569 525
21124 517538 470
73449 721622 509
76579 586210 470
16141 389332 443
31097 771111 509
34797 162122 383
63742 283143 443
79600 259025 443
74855 26700 340
71318 42334 340
93527 222631 386
66785 187174 383
21219 507440 449
95406 112400 354
51459 139104 354
82568 189066 383
51876 458438 449
19895 231764 443
41493 843237 525
15727 893789 525
29226 943072 525
96628 965622 525
88053 332246 443
26199 305225 443
90810 47329 351
79915 365261 443
99572 877650 525
38742 187939 383
59520 327679 443
54895 666496 509
41540 57676 340
25254 989204 525
95251 611209 470
31807 521836 470
36858 705896 509
99913 575171 470
37761 198834 383
22968 806065 509
57802 98535 351
7601 412806 449
15264 873521 525
15063 937368 525
34315 76643 340
91762 851946 525
59801 40076 340
46015 853907 525
57084 201431 383
99950 688396 509
8835 466821 449
